{
    "server": {
        "secret": "m0n1t0r1ng",
        "port": 3000
    },
    "database": {
        "host": "127.0.0.1",
        "port": 27017,
        "name": "monitoring"
    },
    "cache_ignore_js": true
}